Práctica de regresión logística
…
los valores de las probabildades predichas por el modelo

las clases predichas por el modelo (calculando con la regla anterior)

los valores observados

> eval_model <- tibble(
+   y_probs = predict(glm2, psh_cony, 'response'), #probabildades predichas por el modelo
+   y_preds = if_else(y_probs >= 0.5, '0_Alta', '1_Baja'), # valores predichos
+   y_obs = psh_cony$percep_escalera # valores observados
+ ) %>%
+   drop_na()
> 
> eval_model
## # A tibble: 11,023 × 3
##    y_probs y_preds y_obs 
##      <dbl> <chr>   <fct> 
##  1   0.459 1_Baja  0_Alta
##  2   0.536 0_Alta  0_Alta
##  3   0.438 1_Baja  1_Baja
##  4   0.543 0_Alta  0_Alta
##  5   0.523 0_Alta  0_Alta
##  6   0.563 0_Alta  1_Baja
##  7   0.552 0_Alta  0_Alta
##  8   0.565 0_Alta  1_Baja
##  9   0.542 0_Alta  1_Baja
## 10   0.404 1_Baja  0_Alta
## # … with 11,013 more rows
…
> eval_model_obrera <- tibble(
+   y_probs = predict(glm3, psh_cony, 'response'), #probabildades predichas por el modelo
+   y_preds = if_else(y_probs > 0.5, 'Media y alta', 'Obrera'), # valores predichos
+   y_obs = psh_cony$percep_obrera # valores observados
+ ) %>%
+   drop_na()
> 
> eval_model_obrera
## # A tibble: 11,075 × 3
##    y_probs y_preds      y_obs       
##      <dbl> <chr>        <fct>       
##  1   0.119 Obrera       Media y alta
##  2   0.165 Obrera       Media y alta
##  3   0.357 Obrera       Media y alta
##  4   0.450 Obrera       Obrera      
##  5   0.477 Obrera       Media y alta
##  6   0.479 Obrera       Obrera      
##  7   0.567 Media y alta Media y alta
##  8   0.515 Media y alta Media y alta
##  9   0.406 Obrera       Media y alta
## 10   0.117 Obrera       Media y alta
## # … with 11,065 more rows
…
