Modelado de tópicos Vol. 1. Latent Dirichlet Allocation
…
Hagamos una exploración rápida:

revistas_tidy %>%
        group_by(word) %>%
        summarise(n=n()) %>%
        arrange(desc(n))

## # A tibble: 112,083 × 2
##    word       n
##    <chr>  <int>
##  1 de    152420
##  2 que    89337
##  3 la     86281
##  4 y      85932
##  5 en     70293
##  6 el     67110
##  7 a      53494
##  8 un     37559
##  9 los    36885
## 10 con    34517
## # ℹ 112,073 more rows
…
## Ahora, las eliminamos 
revistas_tidy <- revistas_tidy %>%
                anti_join(stop_words)

## Joining with `by = join_by(word)`

Veamos cómo quedó ahora la distribución de palabras:

revistas_tidy %>%
        group_by(word) %>%
        summarise(n=n()) %>%
        arrange(desc(n))

## # A tibble: 111,484 × 2
##    word          n
##    <chr>     <int>
##  1 vida       2835
##  2 mundo      2780
##  3 casa       1925
##  4 argentina  1729
##  5 forma      1674
##  6 historia   1486
##  7 personas   1462
##  8 ciudad     1412
##  9 podes      1392
## 10 tipo       1391
## # ℹ 111,474 more rows
…
¿Cómo podríamos identificar las palabras más usadas cada grupo de
revista?

revistas_tidy %>%
        group_by(categoria, word) %>%
        summarise(n=n()) %>%
        arrange(desc(n)) %>%
        pivot_wider(names_from = categoria,
                    values_from = n)

## `summarise()` has grouped output by 'categoria'. You can override using the
## `.groups` argument.

## # A tibble: 111,484 × 3
##    word      Hombre Mujer
##    <chr>      <int> <int>
##  1 mundo       1652  1128
##  2 vida        1289  1546
##  3 argentina   1322   407
##  4 podes        166  1226
##  5 vas          149  1009
##  6 vos          244   971
##  7 casa         962   963
##  8 historia     947   539
##  9 mujeres      299   937
## 10 ciudad       921   491
## # ℹ 111,474 more rows
…
La interpretación

Probabilidad de cada palabra en cada tópico

Lo primero que vamos a hacer es tomar la distribución de palabras
para cada tópico. Para construir esa distribución vamos a tomar la
matriz beta que está dentro del objeto
stm:

ap_topics <- tidy(lda_4, matrix = "beta") # Si esta línea les tira algún error, hagan install.packages("reshape2")

ap_topics %>%
  mutate(beta = round(100*beta,6))

## # A tibble: 445,936 × 3
##    topic term            beta
##    <int> <chr>          <dbl>
##  1     1 aag         0       
##  2     2 aag         0.000619
##  3     3 aag         0       
##  4     4 aag         0       
##  5     1 abajo       0.00958 
##  6     2 abajo       0.0248  
##  7     3 abajo       0.0306  
##  8     4 abajo       0.00714 
##  9     1 abandonarlo 0       
## 10     2 abandonarlo 0.000928
## # ℹ 445,926 more rows
…
beta_wide <- ap_topics %>%
  mutate(topic = paste0("topic", topic)) %>%
  pivot_wider(names_from = topic, values_from = beta) %>% 
  filter(topic3 > .002 | topic4 > .002) %>%
  mutate(log_ratio3_4 = log2(topic4 / topic3))

beta_wide

## # A tibble: 22 × 6
##    term      topic1   topic2   topic3       topic4 log_ratio3_4
##    <chr>      <dbl>    <dbl>    <dbl>        <dbl>        <dbl>
##  1 agua   0.0000993 0.000943 0.00306  0.00121            -1.34 
##  2 cuerpo 0.000996  0.00102  0.00267  0.000140           -4.25 
##  3 forma  0.00182   0.000988 0.00227  0.00109            -1.07 
##  4 mundo  0.00366   0.00259  0.000883 0.00219             1.31 
##  5 pelo   0.0000198 0.000434 0.00236  0.0000000242      -16.6  
##  6 podes  0.00134   0.000204 0.00224  0.00162            -0.465
##  7 tipo   0.00104   0.00101  0.00226  0.000958           -1.24 
##  8 ciudad 0.000585  0.00106  0.000129 0.00335             4.70 
##  9 aires  0.000614  0.00132  0.000260 0.00231             3.15 
## 10 estilo 0.000427  0.000260 0.00244  0.000925           -1.40 
## # ℹ 12 more rows
…
Composición de tópicos por documento

Además de estimar cada tema como una mezcla de palabras, LDA también
modela cada documento como una mezcla de temas. Podemos examinar las
probabilidades por documento por tema, llamadas \(\gamma\), con el argumento
matrix = "gamma" para tidy().

doc_2_topics <- tidy(lda_4, matrix = "gamma")
doc_2_topics %>%
  mutate(gamma = round(gamma, 5),
         document = as.integer(document)) %>%
  arrange(document, desc(gamma))

## # A tibble: 15,720 × 3
##    document topic   gamma
##       <int> <int>   <dbl>
##  1        1     2 0.984  
##  2        1     4 0.0156 
##  3        1     1 0.00005
##  4        1     3 0.00005
##  5        2     2 0.999  
##  6        2     1 0.00035
##  7        2     3 0.00035
##  8        2     4 0.00035
##  9        3     1 0.950  
## 10        3     4 0.0489 
## # ℹ 15,710 more rows

Cada uno de estos valores es una proporción estimada de palabras de
ese documento que se generan a partir de ese tema.

Veamos los tópicos 3 y 4:

doc_2_topics %>%
  filter(topic == 3 | topic == 4) %>%
  mutate(gamma = round(gamma, 5))

## # A tibble: 7,860 × 3
##    document topic   gamma
##    <chr>    <int>   <dbl>
##  1 1            3 0.00005
##  2 2            3 0.00035
##  3 3            3 0.00036
##  4 4            3 0.00038
##  5 5            3 0.00135
##  6 6            3 0.00015
##  7 7            3 0.00011
##  8 8            3 0.00019
##  9 9            3 0.450  
## 10 10           3 0.0002 
## # ℹ 7,850 more rows
…
revistas_tidy %>%
  filter(id==9) %>%
  group_by(id, word) %>%
  summarise(n=n()) %>%
  select(word, n) %>%
  arrange(desc(n))

## `summarise()` has grouped output by 'id'. You can override using the `.groups`
## argument.
## Adding missing grouping variables: `id`

## # A tibble: 143 × 3
## # Groups:   id [1]
##       id word             n
##    <dbl> <chr>        <int>
##  1     9 caldo            4
##  2     9 sabor            3
##  3     9 alimentos        2
##  4     9 cocina           2
##  5     9 concentrado      2
##  6     9 conserva         2
##  7     9 conservantes     2
##  8     9 cubitos          2
##  9     9 cubo             2
## 10     9 glutamato        2
## # ℹ 133 more rows
…
