Clase 1. Tidydata para Procesamiento de Lenguaje Natural
…
¿Cuántos documentos tenemos en este ejemplo?

Dentro de nuestro dataframe de texto ordenado, necesitamos dividir el
texto en tokens individuales (un proceso llamado
tokenización) y transformarlo en una estructura de datos ordenada. Para
hacer esto, usamos la función unnest_tokens() de
tidytext.

library(tidytext)

marx_df %>%
  unnest_tokens(output=word, input=text)

## # A tibble: 173 × 2
##     line word      
##    <dbl> <chr>     
##  1     1 el        
##  2     1 conjunto  
##  3     1 de        
##  4     1 estas     
##  5     1 relaciones
##  6     1 de        
##  7     1 producción
##  8     1 forma     
##  9     1 la        
## 10     1 estructura
## # ℹ 163 more rows
…
Cargamos los datos:

marx_engels <- read_csv('../data/marx_engels.csv')

## Rows: 145 Columns: 4
## ── Column specification ────────────────────────────────────────────────────────
## Delimiter: ","
## chr (4): tipo, autor, titulo, texto
## 
## ℹ Use `spec()` to retrieve the full column specification for this data.
## ℹ Specify the column types or set `show_col_types = FALSE` to quiet this message.

marx_engels

## # A tibble: 145 × 4
##    tipo   autor       titulo                                               texto
##    <chr>  <chr>       <chr>                                                <chr>
##  1 libros marx engels Contribucion al problema de la vivienda              Enge…
##  2 libros marx engels Feuerbach Oposicion entre las concepciones material… Marx…
##  3 libros marx engels La guerra civil en Francia                           Marx…
##  4 libros marx engels La Guerra de los Campesinos en Alemania              A li…
##  5 libros marx engels La ideologia alemana                                 K Ma…
##  6 libros marx engels La revolucion de la ciencia de Eugenio Duhring Anti… Enge…
##  7 libros marx engels La Sagrada Familia o Critica de la criticia critica… K Ma…
##  8 libros marx engels Las luchas de clases en Francia de 1848 a 1850       K Ma…
##  9 libros marx engels Ludwig Feuerbach y el fin de la filosofia clasica a… F En…
## 10 libros marx engels Manuscritos economicos y filosoficos de 1844         K Ma…
## # ℹ 135 more rows

¿Qué estructura tiene este dataset?

Vamos a transformarlo en un formato tidy:

marx_engels_tidy <- marx_engels %>%
        unnest_tokens(word, texto)

marx_engels_tidy

## # A tibble: 1,260,450 × 4
##    tipo   autor       titulo                                  word        
##    <chr>  <chr>       <chr>                                   <chr>       
##  1 libros marx engels Contribucion al problema de la vivienda engels      
##  2 libros marx engels Contribucion al problema de la vivienda 1873        
##  3 libros marx engels Contribucion al problema de la vivienda contribucion
##  4 libros marx engels Contribucion al problema de la vivienda al          
##  5 libros marx engels Contribucion al problema de la vivienda problema    
##  6 libros marx engels Contribucion al problema de la vivienda de          
##  7 libros marx engels Contribucion al problema de la vivienda la          
##  8 libros marx engels Contribucion al problema de la vivienda vivienda    
##  9 libros marx engels Contribucion al problema de la vivienda indice      
## 10 libros marx engels Contribucion al problema de la vivienda f           
## # ℹ 1,260,440 more rows
…
marx_engels_tidy <- marx_engels_tidy %>%
  anti_join(stop_words)

## Joining with `by = join_by(word)`

Fíjense cómo pasamos de aprimadamente 1.000.000 de palabras a 529.000
luego de eliminar las stop_words.

Ahora bien, ¿cuáles son las palabras más usadas por Marx y
Engels?

marx_engels_tidy %>%
        count(word, sort=TRUE)

## # A tibble: 45,439 × 2
##    word           n
##    <chr>      <int>
##  1 senor       2130
##  2 produccion  1994
##  3 propiedad   1894
##  4 sociedad    1891
##  5 hombre      1880
##  6 pag         1815
##  7 marx        1639
##  8 clase       1567
##  9 general     1545
## 10 critica     1538
## # ℹ 45,429 more rows
…
## `summarise()` has grouped output by 'tipo'. You can override using the
## `.groups` argument.

freqs

## # A tibble: 44,434 × 4
##    word         cartas   libros     notas
##    <chr>         <dbl>    <dbl>     <dbl>
##  1 a           0.0139  0.00782   0.00535 
##  2 abajo       0.0139  0.0138    0.0113  
##  3 abandonado  0.00695 0.00541   0.00476 
##  4 abandonados 0.00695 0.00180   0.00297 
##  5 abandonan   0.00348 0.000902  0.000595
##  6 abandonar   0.0209  0.00662   0.00654 
##  7 abandonasen 0.00348 0.000301 NA       
##  8 abarca      0.00348 0.00782   0.00238 
##  9 abarcar     0.00348 0.000902  0.00119 
## 10 abarque     0.00348 0.00120   0.000595
## # ℹ 44,424 more rows
…
