Clase 3. Relaciones entre palabras: n-gramas y correlaciones
…
Para lograr esto, agregamos la opción token = "ngrams" a
la función unnest_tokens(), y establecemos el valor de
n en el número de palabras que deseamos capturar en cada
n-grama. Cuando establecemos n en 2, estamos examinando
pares de dos palabras consecutivas, a menudo llamadas “bigramas”.

renzi_bigrams <- renzi %>%
  unnest_tokens(bigram, entry, token = "ngrams", n = 2) %>%
  filter(!is.na(bigram))

renzi_bigrams

## # A tibble: 384,583 × 3
##    tomo                chapter bigram      
##    <chr>                 <dbl> <chr>       
##  1 I-Años de formación       1 capitulo 1  
##  2 I-Años de formación       1 1 en        
##  3 I-Años de formación       1 en el       
##  4 I-Años de formación       1 el umbral   
##  5 I-Años de formación       1 umbral desde
##  6 I-Años de formación       1 desde chico 
##  7 I-Años de formación       1 chico repito
##  8 I-Años de formación       1 repito lo   
##  9 I-Años de formación       1 lo que      
## 10 I-Años de formación       1 que no      
## # ℹ 384,573 more rows
…
Es importante notar que estos bigramas se superponen: “el umbral” es
un token, mientras que “umbral desde” es otro.

Conteo y filtrado de n-gramas

Nuestras herramientas habituales de tidy data se aplican igualmente
bien al análisis de n-gramas. Podemos examinar los bigramas más comunes
utilizando la función count() de dplyr:

renzi_bigrams %>%
  count(bigram, sort = TRUE)

## # A tibble: 166,824 × 2
##    bigram     n
##    <chr>  <int>
##  1 de la   3343
##  2 en el   2527
##  3 en la   2420
##  4 a la    1688
##  5 lo que  1140
##  6 de los   994
##  7 que se   894
##  8 en un    695
##  9 de un    657
## 10 que no   637
## # ℹ 166,814 more rows
…
bigrams_separated <- renzi_bigrams %>%
  separate(bigram, c("word1", "word2"), sep = " ")

bigrams_filtered <- bigrams_separated %>%
  filter(!word1 %in% stop_words$word) %>%
  filter(!word2 %in% stop_words$word)

# new bigram counts:
bigram_counts <- bigrams_filtered %>% 
  count(word1, word2, sort = TRUE)

bigram_counts

## # A tibble: 52,221 × 3
##    word1   word2       n
##    <chr>   <chr>   <int>
##  1 buenos  aires     195
##  2 mil     pesos     126
##  3 cada    vez       116
##  4 mismo   tiempo     66
##  5 primera vez        64
##  6 puede   ser        56
##  7 jorge   alvarez    55
##  8 tal     vez        49
##  9 quiere  decir      43
## 10 debe    ser        41
## # ℹ 52,211 more rows
Podemos ver que hay bastantes nombres de lugares (buenos_aires), de
personas (jorge_alvarez), números (mil_pesos), etc.

En otros análisis, es posible que deseemos trabajar con las palabras
recombinadas. La función unite() de tidyr es
el inverso de separate(), y nos permite combinar las
columnas en una sola. Así, “separate/filter/count/unite” nos permite
encontrar las bigramas más comunes que no contienen stopwords.

bigrams_united <- bigrams_filtered %>%
  unite(bigram, word1, word2, sep = " ")

bigrams_united

## # A tibble: 63,201 × 3
##    tomo                chapter bigram            
##    <chr>                 <dbl> <chr>             
##  1 I-Años de formación       1 chico repito      
##  2 I-Años de formación       1 reia retrospectivo
##  3 I-Años de formación       1 radiante emilio   
##  4 I-Años de formación       1 emilio renzi      
##  5 I-Años de formación       1 abuelo emilio     
##  6 I-Años de formación       1 emilio sentado    
##  7 I-Años de formación       1 cuero ausente     
##  8 I-Años de formación       1 ojos fijos        
##  9 I-Años de formación       1 misterioso objeto 
## 10 I-Años de formación       1 objeto rectangular
## # ℹ 63,191 more rows

En otros análisis, es posible que estés interesado en los trigramas
más comunes, que son secuencias consecutivas de 3 palabras. Podemos
encontrar esto estableciendo n = 3:

renzi %>%
  unnest_tokens(trigram, entry, token = "ngrams", n = 3) %>%
  filter(!is.na(trigram)) %>%
  separate(trigram, c("word1", "word2", "word3"), sep = " ") %>%
  filter(!word1 %in% stop_words$word,
         !word2 %in% stop_words$word,
         !word3 %in% stop_words$word) %>%
  count(word1, word2, word3, sort = TRUE)

## # A tibble: 19,786 × 4
##    word1      word2  word3             n
##    <chr>      <chr>  <chr>         <int>
##  1 veinte     mil    pesos            17
##  2 cada       vez    menos            15
##  3 cincuenta  mil    pesos            13
##  4 dipi       di     paola            12
##  5 cien       mil    pesos            10
##  6 quinientos mil    pesos            10
##  7 mata       hari   55                9
##  8 dia        tras   dia               8
##  9 editorial  tiempo contemporaneo     8
## 10 nestor     garcia canclini          7
## # ℹ 19,776 more rows

Analizando bigramas

Este formato de un bigrama por fila es útil para análisis
exploratorios del texto. Como ejemplo sencillo, podríamos estar
interesados en la forma en que Renzi menciona la palabra
“literatura”:

bigrams_filtered %>%
  filter(word1 == "literatura" | word2 == "literatura") %>%
  count(tomo, chapter,word1, word2, sort = TRUE)

## # A tibble: 182 × 5
##    tomo                  chapter word1      word2               n
##    <chr>                   <dbl> <chr>      <chr>           <int>
##  1 II-Los años felices         3 literatura norteamericana      5
##  2 I-Años de formación        18 literatura argentina           4
##  3 II-Los años felices         3 literatura argentina           4
##  4 I-Años de formación        11 literatura contemporanea       3
##  5 II-Los años felices         1 literatura argentina           3
##  6 II-Los años felices         1 literatura contemporanea       3
##  7 III-Un día en la vida       5 literatura argentina           3
##  8 I-Años de formación        16 literatura argentina           2
##  9 I-Años de formación        18 literatura latinoamericana     2
## 10 I-Años de formación        18 literatura norteamericana      2
## # ℹ 172 more rows

Un bigrama también puede ser tratado como un término en un documento
de la misma manera que tratamos palabras individuales. Por ejemplo,
podemos analizar el tf-idf de bigramas en los diarios de Piglia. Estos
valores de tf-idf pueden visualizarse dentro de cada tomo, al igual que
hicimos para las palabras.

bigram_tf_idf <- bigrams_united %>%
  count(tomo, bigram) %>%
  bind_tf_idf(bigram, tomo, n) %>%
  arrange(desc(tf_idf))

bigram_tf_idf

## # A tibble: 55,677 × 6
##    tomo                  bigram                n       tf   idf   tf_idf
##    <chr>                 <chr>             <int>    <dbl> <dbl>    <dbl>
##  1 I-Años de formación   moneda griega        10 0.000486 1.10  0.000534
##  2 II-Los años felices   norberto soares      12 0.000468 1.10  0.000514
##  3 III-Un día en la vida mil dolares          21 0.00124  0.405 0.000502
##  4 II-Los años felices   serie negra          10 0.000390 1.10  0.000428
##  5 II-Los años felices   vino david           10 0.000390 1.10  0.000428
##  6 III-Un día en la vida anita barrenechea     6 0.000354 1.10  0.000388
##  7 III-Un día en la vida penso renzi           6 0.000354 1.10  0.000388
##  8 II-Los años felices   cosas concretas       9 0.000351 1.10  0.000385
##  9 I-Años de formación   dijo despues          7 0.000340 1.10  0.000374
## 10 I-Años de formación   dijo lucia            7 0.000340 1.10  0.000374
## # ℹ 55,667 more rows
…
Ahora que tenemos los datos organizados en bigramas, es fácil
determinar con qué frecuencia las palabras están precedidas por una
palabra como “no”:

bigrams_separated %>%
  filter(word1 == "no") %>%
  count(word1, word2, sort = TRUE)

## # A tibble: 819 × 3
##    word1 word2     n
##    <chr> <chr> <int>
##  1 no    se      353
##  2 no    me      204
##  3 no    es      192
##  4 no    hay     148
##  5 no    lo       90
##  6 no    puedo    89
##  7 no    le       76
##  8 no    puede    62
##  9 no    tiene    57
## 10 no    habia    51
## # ℹ 809 more rows
…
not_words <- bigrams_separated %>%
  filter(word1 == "no") %>%
  inner_join(sentiment_words_liia, by = c(word2 = "word")) %>%
  count(word2, mean_likeness, sort = TRUE)

## Warning in inner_join(., sentiment_words_liia, by = c(word2 = "word")): Detected an unexpected many-to-many relationship between `x` and `y`.
## ℹ Row 23 of `x` matches multiple rows in `y`.
## ℹ Row 2543 of `y` matches multiple rows in `x`.
## ℹ If a many-to-many relationship is expected, set `relationship =
##   "many-to-many"` to silence this warning.

not_words

## # A tibble: 146 × 3
##    word2    mean_likeness     n
##    <chr>            <dbl> <int>
##  1 solo               2      72
##  2 habia              2.4    51
##  3 era                2.4    47
##  4 solo               1.4    36
##  5 pensar             2.8    27
##  6 bien               3      24
##  7 tenia              1      24
##  8 tener              2.6    23
##  9 ficcion            2.6    18
## 10 recuerdo           2.2    17
## # ℹ 136 more rows
…
negated_words <- bigrams_separated %>%
  filter(word1 %in% negation_words) %>%
  inner_join(sentiment_words_liia, by = c(word2 = "word")) %>%
  count(word1, word2, mean_likeness, sort = TRUE)

## Warning in inner_join(., sentiment_words_liia, by = c(word2 = "word")): Detected an unexpected many-to-many relationship between `x` and `y`.
## ℹ Row 27 of `x` matches multiple rows in `y`.
## ℹ Row 2543 of `y` matches multiple rows in `x`.
## ℹ If a many-to-many relationship is expected, set `relationship =
##   "many-to-many"` to silence this warning.

negated_words

## # A tibble: 383 × 4
##    word1 word2  mean_likeness     n
##    <chr> <chr>          <dbl> <int>
##  1 no    solo             2      72
##  2 no    habia            2.4    51
##  3 no    era              2.4    47
##  4 no    solo             1.4    36
##  5 sin   saber            2.8    31
##  6 sin   saber            3      31
##  7 sin   plata            2.8    28
##  8 no    pensar           2.8    27
##  9 no    bien             3      24
## 10 no    tenia            1      24
## # ℹ 373 more rows
…
## The following objects are masked from 'package:stats':
## 
##     decompose, spectrum

## The following object is masked from 'package:base':
## 
##     union

# Recuentos originales
bigram_counts

## # A tibble: 52,221 × 3
##    word1   word2       n
##    <chr>   <chr>   <int>
##  1 buenos  aires     195
##  2 mil     pesos     126
##  3 cada    vez       116
##  4 mismo   tiempo     66
##  5 primera vez        64
##  6 puede   ser        56
##  7 jorge   alvarez    55
##  8 tal     vez        49
##  9 quiere  decir      43
## 10 debe    ser        41
## # ℹ 52,211 more rows
…
Consideremos el primer tomo de los diarios de Renzi, “I-Años de
formación”, dividido en entradas. Es posible que estemos interesados en
las palabras que tienden a aparecer dentro de la misma sección.

renzi_section_words <- renzi %>%
  filter(tomo == "I-Años de formación") %>%
  mutate(entry_code = row_number()) %>%
  #filter(section > 0) %>%
  unnest_tokens(word, entry) %>%
  filter(!word %in% stop_words$word)

renzi_section_words

## # A tibble: 63,857 × 4
##    tomo                chapter entry_code word         
##    <chr>                 <dbl>      <int> <chr>        
##  1 I-Años de formación       1          1 1            
##  2 I-Años de formación       1          1 umbral       
##  3 I-Años de formación       1          1 chico        
##  4 I-Años de formación       1          1 repito       
##  5 I-Años de formación       1          1 entiendo     
##  6 I-Años de formación       1          1 reia         
##  7 I-Años de formación       1          1 retrospectivo
##  8 I-Años de formación       1          1 radiante     
##  9 I-Años de formación       1          1 emilio       
## 10 I-Años de formación       1          1 renzi        
## # ℹ 63,847 more rows
Una función útil de widyr es pairwise_count(). El
prefijo pairwise_ significa que esta función resultará en
una fila por cada par de palabras en la variable “word”. Esto nos
permite contar pares comunes de palabras que coaparecen en la misma
sección:

library(widyr)

# cuenta palabras que co-ocurren en cada entrada
word_pairs <- renzi_section_words %>%
  pairwise_count(word, entry_code, sort = TRUE)

word_pairs

## # A tibble: 13,019,932 × 3
##    item1  item2      n
##    <chr>  <chr>  <dbl>
##  1 mismo  tiempo    70
##  2 tiempo mismo     70
##  3 vida   tiempo    69
##  4 tiempo vida      69
##  5 mismo  vida      69
##  6 vida   mismo     69
##  7 vez    mismo     68
##  8 mismo  vez       68
##  9 ahora  vida      64
## 10 ser    vida      64
## # ℹ 13,019,922 more rows

Es importante notar que mientras la entrada tenía una fila por cada
par de un documento (una entrada) y una palabra, la salida tiene una
fila por cada par de palabras. Esto también es un formato tidy, pero de
una estructura muy diferente que podemos usar para responder nuevas
preguntas.

Por ejemplo, podemos ver que el par de palabras más común en una
sección es “mismo” y “tiempo”. También podemos encontrar fácilmente las
palabras que más a menudo ocurren con “tiempo”:

word_pairs %>%
  filter(item1 == "tiempo")

## # A tibble: 9,809 × 3
##    item1  item2        n
##    <chr>  <chr>    <dbl>
##  1 tiempo mismo       70
##  2 tiempo vida        69
##  3 tiempo hace        60
##  4 tiempo ahora       58
##  5 tiempo vez         58
##  6 tiempo ser         56
##  7 tiempo despues     54
##  8 tiempo noche       52
##  9 tiempo hacer       48
## 10 tiempo historia    48
## # ℹ 9,799 more rows
…
La función pairwise_cor() en widyr nos permite encontrar
el coeficiente phi entre palabras basado en cuán frecuentemente aparecen
juntas en la misma sección. Su sintaxis es similar a
pairwise_count().

# we need to filter for at least relatively common words first
word_cors <- renzi_section_words %>%
  group_by(word) %>%
  filter(n() >= 20) %>%
  pairwise_cor(word, entry_code, sort = TRUE)

word_cors

## # A tibble: 336,980 × 3
##    item1   item2   correlation
##    <chr>   <chr>         <dbl>
##  1 buenos  aires         0.944
##  2 aires   buenos        0.944
##  3 pesos   mil           0.751
##  4 mil     pesos         0.751
##  5 alvarez jorge         0.638
##  6 jorge   alvarez       0.638
##  7 renzi   emilio        0.592
##  8 emilio  renzi         0.592
##  9 abuelo  emilio        0.515
## 10 emilio  abuelo        0.515
## # ℹ 336,970 more rows

Este ouput es útil para hacer un análisis exploratorio. Por ejemplo,
podemos encontrar las palabras mas correlaciones con una palabra como
“vinas”, referida a David Viñas, usando una operación de filtrado:

word_cors %>%
  filter(item1 == "vinas")

## # A tibble: 580 × 3
##    item1 item2     correlation
##    <chr> <chr>           <dbl>
##  1 vinas peronismo       0.235
##  2 vinas beatriz         0.235
##  3 vinas posible         0.199
##  4 vinas narra           0.199
##  5 vinas zona            0.183
##  6 vinas escritura       0.176
##  7 vinas prosa           0.167
##  8 vinas concepto        0.161
##  9 vinas varios          0.154
## 10 vinas luego           0.152
## # ℹ 570 more rows
…
