Aprendizaje Supervisado. Árboles de decisión
…
tree_depth(): es un número que define la máxima
cantidad de particiones que puede llegar a tener el modelo.
Prepoda.

min_n(): mínimo número de puntos que debe haber en un
nodo para que el árbol se siga partiendo hacia abajo. Prepoda.

set.seed(1912)

tree_grid <- grid_regular(cost_complexity(), tree_depth(), min_n(), levels = 4)

tree_grid

## # A tibble: 64 × 3
##    cost_complexity tree_depth min_n
##              <dbl>      <int> <int>
##  1    0.0000000001          1     2
##  2    0.0000001             1     2
##  3    0.0001                1     2
##  4    0.1                   1     2
##  5    0.0000000001          5     2
##  6    0.0000001             5     2
##  7    0.0001                5     2
##  8    0.1                   5     2
##  9    0.0000000001         10     2
## 10    0.0000001            10     2
## # ℹ 54 more rows

También podríamos definir de forma manual una grilla de
hiperparámetros. Por ejemplo, con la función
crossing():

crossing(
  cost_complexity =seq(0,1,0.1),
  tree_depth = seq(1,15,5),
  min_n = seq(2,40,5)
)

## # A tibble: 264 × 3
##    cost_complexity tree_depth min_n
##              <dbl>      <dbl> <dbl>
##  1               0          1     2
##  2               0          1     7
##  3               0          1    12
##  4               0          1    17
##  5               0          1    22
##  6               0          1    27
##  7               0          1    32
##  8               0          1    37
##  9               0          6     2
## 10               0          6     7
## # ℹ 254 more rows
…
Seguimos tuneando…

Hacemos las muestras de cross-validation.

set.seed(111)

folds <- vfold_cv(train, v = 10)

tidy(folds)

## # A tibble: 107,620 × 3
##      Row Data     Fold  
##    <int> <chr>    <chr> 
##  1     1 Analysis Fold01
##  2     1 Analysis Fold02
##  3     1 Analysis Fold03
##  4     1 Analysis Fold05
##  5     1 Analysis Fold06
##  6     1 Analysis Fold07
##  7     1 Analysis Fold08
##  8     1 Analysis Fold09
##  9     1 Analysis Fold10
## 10     2 Analysis Fold01
## # ℹ 107,610 more rows
…
tree_rs <- tree_wf %>% 
  tune_grid(
  resamples = folds,
  grid = tree_grid,
  metrics = metric_set(roc_auc, precision, 
                       recall, f_meas)
)

Podemos ver los resultados de este objeto con
collect_metrics().

collect_metrics(tree_rs)

## # A tibble: 256 × 9
##    cost_complexity tree_depth min_n .metric   .estimator  mean     n std_err
##              <dbl>      <int> <int> <chr>     <chr>      <dbl> <int>   <dbl>
##  1    0.0000000001          1     2 f_meas    binary     0.541    10 0.00472
##  2    0.0000000001          1     2 precision binary     0.469    10 0.00451
##  3    0.0000000001          1     2 recall    binary     0.639    10 0.00795
##  4    0.0000000001          1     2 roc_auc   binary     0.645    10 0.00512
##  5    0.0000001             1     2 f_meas    binary     0.541    10 0.00472
##  6    0.0000001             1     2 precision binary     0.469    10 0.00451
##  7    0.0000001             1     2 recall    binary     0.639    10 0.00795
##  8    0.0000001             1     2 roc_auc   binary     0.645    10 0.00512
##  9    0.0001                1     2 f_meas    binary     0.541    10 0.00472
## 10    0.0001                1     2 precision binary     0.469    10 0.00451
## # ℹ 246 more rows
## # ℹ 1 more variable: .config <chr>
…
##             Truth
## Prediction   No realiza Realiza
##   No realiza       1193     611
##   Realiza           458    1326

También podemos graficar la curva ROC. Primero hay que obtener las
probabilidades de predicción para cada clase:

test <- final_fit %>%
  predict(test, type = "prob") %>%
  bind_cols(test, .)

test %>% select(realiza_domest:.pred_Realiza)

## # A tibble: 3,588 × 4
##    realiza_domest .pred_class `.pred_No realiza` .pred_Realiza
##    <fct>          <fct>                    <dbl>         <dbl>
##  1 Realiza        No realiza               0.557         0.443
##  2 No realiza     No realiza               0.690         0.310
##  3 Realiza        Realiza                  0.28          0.72 
##  4 No realiza     No realiza               0.677         0.323
##  5 No realiza     No realiza               0.658         0.342
##  6 No realiza     No realiza               0.690         0.310
##  7 Realiza        Realiza                  0.155         0.845
##  8 Realiza        Realiza                  0.163         0.837
##  9 No realiza     No realiza               0.658         0.342
## 10 Realiza        Realiza                  0.317         0.683
## # ℹ 3,578 more rows
…
