Clase 2. Análsis de sentimiento mediante diccionarios
…
renzi <- read_csv('../data/renzi.csv')

## Rows: 1997 Columns: 3
## ── Column specification ────────────────────────────────────────────────────────
## Delimiter: ","
## chr (2): tomo, entry
## dbl (1): chapter
## 
## ℹ Use `spec()` to retrieve the full column specification for this data.
## ℹ Specify the column types or set `show_col_types = FALSE` to quiet this message.

renzi

## # A tibble: 1,997 × 3
##    tomo                                  chapter entry                          
##    <chr>                                   <dbl> <chr>                          
##  1 1_diarios_renzi_años_de_formacion.txt       1 capitulo 1. en el umbral —desd…
##  2 1_diarios_renzi_años_de_formacion.txt       1 y                              
##  3 1_diarios_renzi_años_de_formacion.txt       1 ) y, más abajo, una de las tan…
##  4 1_diarios_renzi_años_de_formacion.txt       1 en casa, me dice borges, conta…
##  5 1_diarios_renzi_años_de_formacion.txt       2 capitulo 2. primer diario (195…
##  6 1_diarios_renzi_años_de_formacion.txt       2 nos vamos pasado mañana. decid…
##  7 1_diarios_renzi_años_de_formacion.txt       2 la mudanza, en medio de la noc…
##  8 1_diarios_renzi_años_de_formacion.txt       2 la casa tiene dos plantas, aba…
##  9 1_diarios_renzi_años_de_formacion.txt       2 yo pienso que tendría que volv…
## 10 1_diarios_renzi_años_de_formacion.txt       2 mi padre, desde el consultorio…
## # ℹ 1,987 more rows
…
Ahora, dado que vamos a contar palabras, vamos a tokenizar el corpus.
En este caso, los tokens van a ser las palabras individuales.
Recordemos: estamos en el formato tidy: cada fila va a ser
una palabra y vamos a generar una columna que numere cada una de las
entradas.

tidy_renzi <- renzi %>%
        mutate(entry_number = row_number()) %>%
        unnest_tokens(output = word, 
                      input = entry)
tidy_renzi

## # A tibble: 386,577 × 4
##    tomo                chapter entry_number word    
##    <chr>                 <dbl>        <int> <chr>   
##  1 I-Años de formación       1            1 capitulo
##  2 I-Años de formación       1            1 1       
##  3 I-Años de formación       1            1 en      
##  4 I-Años de formación       1            1 el      
##  5 I-Años de formación       1            1 umbral  
##  6 I-Años de formación       1            1 desde   
##  7 I-Años de formación       1            1 chico   
##  8 I-Años de formación       1            1 repito  
##  9 I-Años de formación       1            1 lo      
## 10 I-Años de formación       1            1 que     
## # ℹ 386,567 more rows
…
sentiment_words_liia <- read_csv('../data/sentiment_lexicon_liia.csv')

## Rows: 2880 Columns: 3
## ── Column specification ────────────────────────────────────────────────────────
## Delimiter: ","
## chr (1): word
## dbl (2): mean_likeness, std_likeness
## 
## ℹ Use `spec()` to retrieve the full column specification for this data.
## ℹ Specify the column types or set `show_col_types = FALSE` to quiet this message.

sentiment_words_liia

## # A tibble: 2,880 × 3
##    word      mean_likeness std_likeness
##    <chr>             <dbl>        <dbl>
##  1 población           1.8        0.447
##  2 obra                2.2        0.447
##  3 dormir              3          0    
##  4 dar                 2.8        0.447
##  5 realizar            2.6        0.548
##  6 haber               2          0    
##  7 amor                3          0    
##  8 aparecer            2          0    
##  9 seguir              2.4        0.548
## 10 especie             2.2        0.447
## # ℹ 2,870 more rows
…
sentiment_words_liia <- sentiment_words_liia %>% 
        mutate(sentiment = case_when(
                round(mean_likeness) == 1 ~ 'negativo',
                round(mean_likeness) == 2 ~ 'neutral',
                round(mean_likeness) == 3 ~ 'positivo',
        ))

sentiment_words_liia

## # A tibble: 2,880 × 4
##    word      mean_likeness std_likeness sentiment
##    <chr>             <dbl>        <dbl> <chr>    
##  1 población           1.8        0.447 neutral  
##  2 obra                2.2        0.447 neutral  
##  3 dormir              3          0     positivo 
##  4 dar                 2.8        0.447 positivo 
##  5 realizar            2.6        0.548 positivo 
##  6 haber               2          0     neutral  
##  7 amor                3          0     positivo 
##  8 aparecer            2          0     neutral  
##  9 seguir              2.4        0.548 neutral  
## 10 especie             2.2        0.447 neutral  
## # ℹ 2,870 more rows
…
tidy_renzi_sent_kag <- tidy_renzi %>%
        inner_join(sentiment_words_kaggle) %>%
        group_by(tomo, sentiment, word) %>%
        summarise(n = n()) %>%
        ungroup() %>%
        arrange(desc(n))

## Joining with `by = join_by(word)`
## `summarise()` has grouped output by 'tomo', 'sentiment'. You can override using
## the `.groups` argument.

tidy_renzi_sent_kag

## # A tibble: 4,750 × 4
##    tomo                sentiment word        n
##    <chr>               <chr>     <chr>   <int>
##  1 I-Años de formación negativo  tiempo    237
##  2 II-Los años felices negativo  tiempo    210
##  3 II-Los años felices positivo  trabajo   191
##  4 II-Los años felices positivo  bien      175
##  5 II-Los años felices positivo  modo      174
##  6 I-Años de formación positivo  modo      164
##  7 II-Los años felices negativo  solo      139
##  8 II-Los años felices positivo  mil       139
##  9 I-Años de formación positivo  mejor     133
## 10 II-Los años felices positivo  mejor     133
## # ℹ 4,740 more rows
…
## Joining with `by = join_by(word)`
## `summarise()` has grouped output by 'tomo', 'entry_number'. You can override
## using the `.groups` argument.

tidy_renzi_sent_kag

## # A tibble: 1,861 × 5
##    tomo                entry_number negativo positivo sentiment
##    <chr>                      <int>    <int>    <int>     <int>
##  1 I-Años de formación            1      172      106       -66
##  2 I-Años de formación            3       29       25        -4
##  3 I-Años de formación            4       40       50        10
##  4 I-Años de formación            6        5        3        -2
##  5 I-Años de formación            7       20       13        -7
##  6 I-Años de formación            8        1        0        -1
##  7 I-Años de formación            9        4        4         0
##  8 I-Años de formación           10        1        3         2
##  9 I-Años de formación           11        1        2         1
## 10 I-Años de formación           12       12       12         0
## # ℹ 1,851 more rows
…
