Flujo de trabajo Machine Learning
…
Aplicado sobre el total de la base

Tomemos la función augment() para agregar a nuestro
dataset base_para_modelar las probabilidades asignadas
por nuestro modelo a cada uno de los calsos, y por ende, la clase
predicha

base_con_pred<- augment(x = log_fiteado, base_para_modelar) %>% 
  mutate(prediccion_gw = ifelse(.pred_No > 0.8,yes = "No",no = "Si"))

base_con_pred

## # A tibble: 200 × 8
##    realiza_trabajo_domest…¹ horas_trabajo_mercado ingreso_familiar menores_hogar
##    <fct>                                    <int>            <dbl> <chr>        
##  1 No                                          56           11241. No           
##  2 No                                          33           23261. No           
##  3 No                                          36           65440  No           
##  4 No                                          70           12011. Si           
##  5 No                                          43            4905  No           
##  6 No                                          30           24462. Si           
##  7 No                                          39           50437  No           
##  8 No                                          51           21608. No           
##  9 No                                          64           13584. Si           
## 10 No                                          52           18070. No           
## # ℹ 190 more rows
## # ℹ abbreviated name: ¹​realiza_trabajo_domestico
## # ℹ 4 more variables: .pred_class <fct>, .pred_No <dbl>, .pred_Si <dbl>,
## #   prediccion_gw <chr>
…
tidy(modelo_sobre_train)

## # A tibble: 3 × 5
##   term                    estimate std.error statistic      p.value
##   <chr>                      <dbl>     <dbl>     <dbl>        <dbl>
## 1 (Intercept)            7.58      1.39           5.43 0.0000000553
## 2 horas_trabajo_mercado -0.139     0.0276        -5.04 0.000000463 
## 3 ingreso_familiar      -0.0000935 0.0000197     -4.76 0.00000196

Aplico predicciones a la base de testeo

base_test_con_pred <- augment(x = modelo_sobre_train,new_data = base_test)
base_test_con_pred

## # A tibble: 40 × 7
##    realiza_trabajo_domest…¹ horas_trabajo_mercado ingreso_familiar menores_hogar
##    <fct>                                    <int>            <dbl> <chr>        
##  1 No                                          36           65440  No           
##  2 No                                          70           12011. Si           
##  3 No                                          43            4905  No           
##  4 No                                          30           24462. Si           
##  5 No                                          51           21608. No           
##  6 No                                          64           13584. Si           
##  7 No                                          34           16175. No           
##  8 No                                          66           31917. No           
##  9 No                                          45           54686  No           
## 10 No                                          38           13695  No           
## # ℹ 30 more rows
## # ℹ abbreviated name: ¹​realiza_trabajo_domestico
## # ℹ 3 more variables: .pred_class <fct>, .pred_No <dbl>, .pred_Si <dbl>
…
