Aprendizaje Supervisado. Ensamble Learning
…
cart_final_fit <- read_rds('./models/cart_final_train.rds')

test_cart <- cart_final_fit %>%
  predict(test) %>%
  bind_cols(test, .)

test_cart <- cart_final_fit %>%
  predict(test, type = "prob") %>%
  bind_cols(test_cart, .)

test_cart %>% select(realiza_domest:.pred_Realiza)

## # A tibble: 3,588 × 4
##    realiza_domest .pred_class `.pred_No realiza` .pred_Realiza
##    <fct>          <fct>                    <dbl>         <dbl>
##  1 Realiza        No realiza               0.557         0.443
##  2 No realiza     No realiza               0.690         0.310
##  3 Realiza        Realiza                  0.313         0.688
##  4 No realiza     No realiza               0.677         0.323
##  5 No realiza     No realiza               0.658         0.342
##  6 No realiza     No realiza               0.690         0.310
##  7 Realiza        Realiza                  0.246         0.754
##  8 Realiza        Realiza                  0.163         0.837
##  9 No realiza     No realiza               0.658         0.342
## 10 Realiza        Realiza                  0.317         0.683
## # ℹ 3,578 more rows
…
